{
    "type": "application",
    "source-directories": [
        "src"
    ],
    "elm-version": "0.19.1",
    "dependencies": {
        "direct": {
            "elm/browser": "1.0.2",
            "elm/core": "1.0.5",
            "elm/html": "1.0.0",
            "goyalarchit/elm-dagre": "2.0.0"
        },
        "indirect": {
            "avh4/elm-color": "1.0.0",
            "avh4/elm-fifo": "1.0.4",
            "elm/json": "1.1.3",
            "elm/parser": "1.1.0",
            "elm/random": "1.0.0",
            "elm/svg": "1.0.1",
            "elm/time": "1.0.0",
            "elm/url": "1.0.0",
            "elm/virtual-dom": "1.0.3",
            "elm-community/graph": "6.0.0",
            "elm-community/intdict": "3.0.0",
            "elm-community/list-extra": "8.5.2",
            "elm-community/typed-svg": "7.0.0",
            "folkertdev/elm-deque": "3.0.1",
            "folkertdev/one-true-path-experiment": "6.0.0",
            "folkertdev/svg-path-lowlevel": "4.0.1",
            "ianmackenzie/elm-1d-parameter": "1.0.1",
            "ianmackenzie/elm-float-extra": "1.1.0",
            "ianmackenzie/elm-geometry": "3.9.1",
            "ianmackenzie/elm-interval": "2.0.0",
            "ianmackenzie/elm-triangular-mesh": "1.1.0",
            "ianmackenzie/elm-units": "2.9.0",
            "ianmackenzie/elm-units-interval": "2.3.0"
        }
    },
    "test-dependencies": {
        "direct": {},
        "indirect": {}
    }
}
